<svg width="14" height="14" viewBox="0 0 14 14" fill="none" xmlns="http://www.w3.org/2000/svg">
<path d="M13.6314 5.11934C13.5895 4.99592 13.5124 4.88747 13.4095 4.80738C13.3067 4.7273 13.1827 4.67908 13.0527 4.66868L9.25206 4.36668L7.60739 0.72601C7.55502 0.608751 7.46982 0.509157 7.36209 0.439248C7.25436 0.369339 7.1287 0.332102 7.00028 0.332031C6.87185 0.331961 6.74615 0.36906 6.63834 0.438851C6.53054 0.508642 6.44523 0.608142 6.39273 0.725343L4.74806 4.36668L0.947392 4.66868C0.819695 4.67879 0.697617 4.72548 0.595762 4.80316C0.493906 4.88084 0.416587 4.98622 0.373054 5.1067C0.32952 5.22717 0.321617 5.35763 0.350288 5.48248C0.37896 5.60733 0.442992 5.72127 0.534725 5.81068L3.34339 8.54868L2.35006 12.85C2.3199 12.9802 2.32956 13.1165 2.37781 13.2411C2.42605 13.3657 2.51063 13.473 2.62059 13.549C2.73055 13.6249 2.86081 13.6661 2.99445 13.6671C3.12809 13.6681 3.25896 13.629 3.37006 13.5547L7.00006 11.1347L10.6301 13.5547C10.7436 13.6301 10.8775 13.6689 11.0138 13.6659C11.1501 13.6629 11.2822 13.6183 11.3923 13.538C11.5025 13.4577 11.5854 13.3456 11.6299 13.2167C11.6744 13.0879 11.6784 12.9485 11.6414 12.8173L10.4221 8.55068L13.4461 5.82934C13.6441 5.65068 13.7167 5.37201 13.6314 5.11934Z" fill="#F6BB07"/>
</svg>
